…
``` r
#Currently dep_time and sched_dep_time are convenient to look at, but hard to compute with because they’re not really continuous numbers. Convert them to a more convenient representation of number of minutes since midnight.
flights_times <- mutate(flights,
  dep_time_mins = (dep_time %/% 100 * 60 + dep_time %% 100) %% 1440,
  sched_dep_time_mins = (sched_dep_time %/% 100 * 60 +
    sched_dep_time %% 100) %% 1440
)
select(
  flights_times, dep_time, dep_time_mins, sched_dep_time,
  sched_dep_time_mins
)
```

    ## # A tibble: 336,776 × 4
    ##    dep_time dep_time_mins sched_dep_time sched_dep_time_mins
    ##       <int>         <dbl>          <int>               <dbl>
    ##  1      517           317            515                 315
    ##  2      533           333            529                 329
    ##  3      542           342            540                 340
    ##  4      544           344            545                 345
    ##  5      554           354            600                 360
    ##  6      554           354            558                 358
    ##  7      555           355            600                 360
    ##  8      557           357            600                 360
    ##  9      557           357            600                 360
    ## 10      558           358            600                 360
    ## # … with 336,766 more rows
…
